\relax 
\providecommand\zref@newlabel[2]{}
\@writefile{toc}{\contentsline {section}{\numberline {1}Remerciements}{2}}
\@writefile{toc}{\contentsline {section}{\numberline {2}Introduction}{2}}
\@writefile{toc}{\contentsline {subsection}{\numberline {2.1}Pr\IeC {\'e}sentation de l'entreprise}{2}}
\@writefile{toc}{\contentsline {subsection}{\numberline {2.2}Pr\IeC {\'e}sentation du service d'accueil}{2}}
\@writefile{toc}{\contentsline {section}{\numberline {3}Activit\IeC {\'e}s r\IeC {\'e}alis\IeC {\'e}es durant le stage}{2}}
\@writefile{toc}{\contentsline {subsection}{\numberline {3.1}jsp encore}{2}}
\@writefile{toc}{\contentsline {subsection}{\numberline {3.2}blabla}{2}}
\@writefile{toc}{\contentsline {section}{\numberline {4}R\IeC {\'e}flexions et conclusions}{2}}
\@writefile{toc}{\contentsline {section}{\numberline {5}Annexes}{2}}
